<svg width="8" height="15" viewBox="0 0 8 15" fill="none" xmlns="http://www.w3.org/2000/svg">
<path d="M6.79839 14.9323C7.06644 14.9323 7.32328 14.8231 7.51128 14.6291L7.7128 14.4212C8.09578 14.0261 8.09572 13.3921 7.71267 12.997L2.80215 7.93231L7.71267 2.86762C8.09572 2.47254 8.09578 1.83856 7.7128 1.44341L7.51129 1.23549C7.32328 1.04152 7.06645 0.93229 6.7984 0.932313C6.53035 0.932336 6.27353 1.04161 6.08556 1.23562L0.287075 7.2204C-0.0956934 7.61546 -0.0956935 8.24916 0.287075 8.64422L6.08555 14.629C6.27352 14.823 6.53034 14.9323 6.79839 14.9323Z" fill="white"/>
</svg>
