<svg xmlns="http://www.w3.org/2000/svg"
    width="16"
    height="10"
    viewBox="0 0 16 10">
    <path
        d="M14.9094,1.2047C15.0049,1.2987 15.0587,1.4271 15.0587,1.5611C15.0587,1.6951 15.0048,1.8235 14.9093,1.9175L8.13,8.5858C7.9354,8.7772 7.6233,8.7772 7.4287,8.5858L0.6494,1.9175C0.5538,1.8235 0.5,1.6951 0.5,1.5611C0.5,1.4271 0.5538,1.2987 0.6493,1.2047L0.8848,0.9729C1.0795,0.7814 1.3917,0.7815 1.5863,0.973L7.7793,7.0689L13.9724,0.973C14.167,0.7815 14.4792,0.7814 14.6738,0.9729L14.9094,1.2047Z"
        fill="#365BC7"
        stroke="#365BC7"
        stroke-width="1"
        stroke-linejoin="round"/>
</svg>